{
    "system": "n5e",
    "map": [
      {
        "id": "iHZ7gHdR3TfJA4Jp",
        "name": "Berserk",
        "icon": "systems/n5e/icons/svg/berserk.svg",
        "referenceId": "@UUID[Compendium.n5e.rules.VfnXFKVz6YkqsAal.JournalEntryPage.SfmusW5B5jOaR0vd#berserk]{Berserk}",
        "activeEffect": {
          "label": "Berserk",
          "icon": "systems/n5e/icons/svg/berserk.svg",
          "tint": null,
          "disabled": false,
          "duration": {
            "seconds": null,
            "startTime": null,
            "rounds": null,
            "turns": null,
            "startRound": null,
            "startTurn": null,
            "combat": null
          },
          "changes": [
            {
              "key": "flags.midi-qoln5e.disadvantage.ability.check.int",
              "mode": 2,
              "value": "1"
            },
            {
              "key": "flags.midi-qoln5e.disadvantage.ability.save.int",
              "mode": 2,
              "value": "1"
            },
            {
              "key": "flags.midi-qoln5e.disadvantage.ability.check.wis",
              "mode": 2,
              "value": "1"
            },
            {
              "key": "flags.midi-qoln5e.disadvantage.ability.save.wis",
              "mode": 2,
              "value": "1"
            },
            {
              "key": "system.traits.ci.value",
              "mode": 0,
              "value": "charmed"
            },
            {
              "key": "system.traits.ci.value",
              "mode": 0,
              "value": "fear"
            }
          ],
          "flags": {
            "condition-lab-triggler": {
              "conditionId": "iHZ7gHdR3TfJA4Jp"
            }
          },
          "_id": null,
          "origin": null,
          "transfer": true
        },
        "options": {
          "outputChat": false
        },
        "isNew": false,
        "isChanged": false,
        "enrichedReference": "<a class=\"content-link\" draggable=\"true\" data-hash=\"berserk\" data-uuid=\"Compendium.n5e.rules.VfnXFKVz6YkqsAal.JournalEntryPage.SfmusW5B5jOaR0vd\" data-id=\"SfmusW5B5jOaR0vd\" data-type=\"JournalEntryPage\" data-pack=\"n5e.rules\" data-tooltip=\"Text Page\"><i class=\"fas fa-file-lines\"></i>Berserk</a>",
        "hidden": false
      },
      {
        "id": "uvGVrEaAEaBRjI1p",
        "name": "Bleeding",
        "icon": "systems/n5e/icons/svg/bleeding.svg",
        "referenceId": "@UUID[Compendium.n5e.rules.VfnXFKVz6YkqsAal.JournalEntryPage.SfmusW5B5jOaR0vd#bleeding]{Bleeding}",
        "activeEffect": {
          "label": "Bleeding",
          "icon": "systems/n5e/icons/svg/bleeding.svg",
          "tint": null,
          "disabled": false,
          "duration": {
            "seconds": null,
            "startTime": null,
            "rounds": null,
            "turns": null,
            "startRound": null,
            "startTurn": null,
            "combat": null
          },
          "changes": [
            {
              "key": "flags.midi-qoln5e.OverTime",
              "mode": 2,
              "value": "turn=start, damageRoll=1d4, damageType=necrotic, label=Bleeding,",
              "priority": null
            }
          ],
          "flags": {
            "condition-lab-triggler": {
              "conditionId": "uvGVrEaAEaBRjI1p"
            }
          },
          "_id": null,
          "origin": null,
          "transfer": true
        },
        "options": {
          "outputChat": false
        },
        "isNew": false,
        "isChanged": false,
        "enrichedReference": "<a class=\"content-link\" draggable=\"true\" data-hash=\"bleeding\" data-uuid=\"Compendium.n5e.rules.VfnXFKVz6YkqsAal.JournalEntryPage.SfmusW5B5jOaR0vd\" data-id=\"SfmusW5B5jOaR0vd\" data-type=\"JournalEntryPage\" data-pack=\"n5e.rules\" data-tooltip=\"Text Page\"><i class=\"fas fa-file-lines\"></i>Bleeding</a>",
        "hidden": false
      },
      {
        "id": "jMf6XODJIHWeY5wR",
        "name": "Blinded",
        "icon": "systems/n5e/icons/svg/blinded.svg",
        "referenceId": "@UUID[Compendium.n5e.rules.VfnXFKVz6YkqsAal.JournalEntryPage.SfmusW5B5jOaR0vd#blinded]{Blinded}",
        "activeEffect": {
          "label": "Blinded",
          "icon": "systems/n5e/icons/svg/blinded.svg",
          "tint": "",
          "disabled": false,
          "duration": {
            "seconds": null,
            "startTime": null,
            "rounds": null,
            "turns": null,
            "startRound": null,
            "startTurn": null,
            "combat": null
          },
          "changes": [
            {
              "key": "flags.midi-qoln5e.disadvantage.attack.all",
              "mode": 0,
              "value": "1"
            },
            {
              "key": "flags.midi-qoln5e.grants.advantage.attack.all",
              "mode": 0,
              "value": "1"
            }
          ],
          "flags": {
            "condition-lab-triggler": {
              "conditionId": "1XzW99e2q6tSAjnu"
            }
          },
          "_id": null,
          "origin": null,
          "transfer": true
        },
        "macros": [],
        "options": {
          "overlay": false,
          "removeOthers": false,
          "outputChat": false,
          "markDefeated": false,
          "blindToken": true,
          "markInvisible": false
        },
        "isNew": false,
        "isChanged": false,
        "enrichedReference": "<a class=\"content-link\" draggable=\"true\" data-hash=\"blinded\" data-uuid=\"Compendium.n5e.rules.VfnXFKVz6YkqsAal.JournalEntryPage.SfmusW5B5jOaR0vd\" data-id=\"SfmusW5B5jOaR0vd\" data-type=\"JournalEntryPage\" data-pack=\"n5e.rules\" data-tooltip=\"Text Page\"><i class=\"fas fa-file-lines\"></i>Blinded</a>",
        "hidden": false
      },
      {
        "id": "gu9YPIl6ktJK8IYy",
        "name": "Bruised",
        "icon": "systems/n5e/icons/svg/bruised.svg",
        "referenceId": "@UUID[Compendium.n5e.rules.VfnXFKVz6YkqsAal.JournalEntryPage.SfmusW5B5jOaR0vd#bruised]{Bruised}",
        "activeEffect": {
          "label": "Bruised",
          "icon": "systems/n5e/icons/svg/bruised.svg",
          "tint": null,
          "disabled": false,
          "duration": {
            "seconds": null,
            "startTime": null,
            "rounds": null,
            "turns": null,
            "startRound": null,
            "startTurn": null,
            "combat": null
          },
          "changes": [
            {
              "key": "system.bonuses.mwak.attack",
              "mode": 2,
              "value": "-1",
              "priority": null
            },
            {
              "key": "system.bonuses.rwak.attack",
              "mode": 2,
              "value": "-1",
              "priority": null
            },
            {
              "key": "system.bonuses.mtak.attack",
              "mode": 2,
              "value": "-1",
              "priority": null
            },
            {
              "key": "system.bonuses.rtak.attack",
              "mode": 2,
              "value": "-1",
              "priority": null
            },
            {
              "key": "flags.midi-qoln5e.DR.bludgeoning",
              "mode": 2,
              "value": "-2",
              "priority": null
            },
            {
              "key": "flags.midi-qoln5e.DR.earth",
              "mode": 2,
              "value": "-2",
              "priority": null
            }
          ],
          "flags": {
            "condition-lab-triggler": {
              "conditionId": "gu9YPIl6ktJK8IYy"
            }
          },
          "_id": null,
          "origin": null,
          "transfer": true
        },
        "options": {
          "outputChat": false
        },
        "isNew": false,
        "isChanged": false,
        "enrichedReference": "<a class=\"content-link\" draggable=\"true\" data-hash=\"bruised\" data-uuid=\"Compendium.n5e.rules.VfnXFKVz6YkqsAal.JournalEntryPage.SfmusW5B5jOaR0vd\" data-id=\"SfmusW5B5jOaR0vd\" data-type=\"JournalEntryPage\" data-pack=\"n5e.rules\" data-tooltip=\"Text Page\"><i class=\"fas fa-file-lines\"></i>Bruised</a>",
        "hidden": false
      },
      {
        "id": "Zuc89ZF0zaLeTO86",
        "name": "Burned",
        "icon": "systems/n5e/icons/svg/burned.svg",
        "referenceId": "@UUID[Compendium.n5e.rules.VfnXFKVz6YkqsAal.JournalEntryPage.SfmusW5B5jOaR0vd#burned]{Burned}",
        "activeEffect": {
          "label": "Burned",
          "icon": "systems/n5e/icons/svg/burned.svg",
          "tint": null,
          "disabled": false,
          "duration": {
            "seconds": 60,
            "startTime": null,
            "rounds": null,
            "turns": null,
            "startRound": null,
            "startTurn": null,
            "combat": null
          },
          "changes": [
            {
              "key": "flags.midi-qoln5e.OverTime",
              "mode": 2,
              "value": "turn=start, damageRoll=1d8, damageType=fire, label=Burned,"
            },
            {
              "key": "flags.midi-qoln5e.concentrationSaveBonus",
              "mode": 2,
              "value": "-2"
            }
          ],
          "flags": {
            "condition-lab-triggler": {
              "conditionId": "Ud8nlR2Gor28IcBW"
            }
          },
          "_id": null,
          "origin": null,
          "transfer": true
        },
        "options": {
          "outputChat": false
        },
        "isNew": false,
        "isChanged": false,
        "enrichedReference": "<a class=\"content-link\" draggable=\"true\" data-hash=\"burned\" data-uuid=\"Compendium.n5e.rules.VfnXFKVz6YkqsAal.JournalEntryPage.SfmusW5B5jOaR0vd\" data-id=\"SfmusW5B5jOaR0vd\" data-type=\"JournalEntryPage\" data-pack=\"n5e.rules\" data-tooltip=\"Text Page\"><i class=\"fas fa-file-lines\"></i>Burned</a>",
        "hidden": false
      },
      {
        "id": "UNPmAdPilczyOiGI",
        "name": "Charmed",
        "icon": "systems/n5e/icons/svg/charmed.svg",
        "referenceId": "@UUID[Compendium.n5e.rules.VfnXFKVz6YkqsAal.JournalEntryPage.SfmusW5B5jOaR0vd#charmed]{Charmed}",
        "options": {
          "outputChat": false
        },
        "isNew": false,
        "isChanged": false,
        "enrichedReference": "<a class=\"content-link\" draggable=\"true\" data-hash=\"charmed\" data-uuid=\"Compendium.n5e.rules.VfnXFKVz6YkqsAal.JournalEntryPage.SfmusW5B5jOaR0vd\" data-id=\"SfmusW5B5jOaR0vd\" data-type=\"JournalEntryPage\" data-pack=\"n5e.rules\" data-tooltip=\"Text Page\"><i class=\"fas fa-file-lines\"></i>Charmed</a>",
        "hidden": false
      },
      {
        "id": "ZDs2IG7SMFZgUK1S",
        "name": "Chilled",
        "icon": "systems/n5e/icons/svg/chilled.svg",
        "referenceId": "@UUID[Compendium.n5e.rules.VfnXFKVz6YkqsAal.JournalEntryPage.SfmusW5B5jOaR0vd#chilled]{Chilled}",
        "activeEffect": {
          "label": "Chilled",
          "icon": "systems/n5e/icons/svg/chilled.svg",
          "tint": null,
          "disabled": false,
          "duration": {
            "seconds": 60,
            "startTime": null,
            "rounds": null,
            "turns": null,
            "startRound": null,
            "startTurn": null,
            "combat": null
          },
          "changes": [
            {
              "key": "system.attributes.movement.all",
              "mode": 0,
              "value": "-5"
            },
            {
              "key": "flags.midi-qoln5e.OverTime",
              "mode": 2,
              "value": "turn=start, damageRoll=1d6, damageType=cold, label=Chilled,"
            },
            {
              "key": "system.abilities.dex.bonuses.save",
              "mode": 2,
              "value": "-1"
            },
            {
              "key": "system.abilities.dex.bonuses.check",
              "mode": 2,
              "value": "-1"
            }
          ],
          "flags": {
            "condition-lab-triggler": {
              "conditionId": "DtAr3Qq9itRQBgPe"
            }
          },
          "_id": null,
          "origin": null,
          "transfer": true
        },
        "macros": [],
        "options": {
          "outputChat": false
        },
        "isNew": false,
        "isChanged": false,
        "enrichedReference": "<a class=\"content-link\" draggable=\"true\" data-hash=\"chilled\" data-uuid=\"Compendium.n5e.rules.VfnXFKVz6YkqsAal.JournalEntryPage.SfmusW5B5jOaR0vd\" data-id=\"SfmusW5B5jOaR0vd\" data-type=\"JournalEntryPage\" data-pack=\"n5e.rules\" data-tooltip=\"Text Page\"><i class=\"fas fa-file-lines\"></i>Chilled</a>",
        "hidden": false
      },
      {
        "id": "jjv7ETJiFNyyHuCO",
        "name": "Concentrating",
        "icon": "modules/condition-lab-triggler/icons/concentrating.svg",
        "referenceId": "@UUID[Compendium.n5e.rules.wDOkBVpiBhH3ZZlx.JournalEntryPage.njF9PueE9rmnn8N8#concentration]{Concentration}",
        "options": {
          "outputChat": false
        },
        "isNew": false,
        "isChanged": false,
        "enrichedReference": "<a class=\"content-link\" draggable=\"true\" data-hash=\"concentration\" data-uuid=\"Compendium.n5e.rules.wDOkBVpiBhH3ZZlx.JournalEntryPage.njF9PueE9rmnn8N8\" data-id=\"njF9PueE9rmnn8N8\" data-type=\"JournalEntryPage\" data-pack=\"n5e.rules\" data-tooltip=\"Text Page\"><i class=\"fas fa-file-lines\"></i>Concentration</a>",
        "hidden": false
      },
      {
        "id": "4GCves3wf7syjWN8",
        "name": "Concussed",
        "icon": "systems/n5e/icons/svg/concussed.svg",
        "referenceId": "@UUID[Compendium.n5e.rules.VfnXFKVz6YkqsAal.JournalEntryPage.SfmusW5B5jOaR0vd#concussed]{Concussed}",
        "activeEffect": {
          "label": "Concussed",
          "icon": "systems/n5e/icons/svg/concussed.svg",
          "tint": null,
          "disabled": false,
          "duration": {
            "seconds": null,
            "startTime": null,
            "rounds": null,
            "turns": null,
            "startRound": null,
            "startTurn": null,
            "combat": null
          },
          "changes": [
            {
              "key": "system.bonuses.jutsu.dc",
              "mode": 0,
              "value": "-1"
            }
          ],
          "flags": {
            "condition-lab-triggler": {
              "conditionId": "4GCves3wf7syjWN8"
            }
          },
          "_id": null,
          "origin": null,
          "transfer": true
        },
        "options": {
          "outputChat": false
        },
        "isNew": false,
        "isChanged": false,
        "enrichedReference": "<a class=\"content-link\" draggable=\"true\" data-hash=\"concussed\" data-uuid=\"Compendium.n5e.rules.VfnXFKVz6YkqsAal.JournalEntryPage.SfmusW5B5jOaR0vd\" data-id=\"SfmusW5B5jOaR0vd\" data-type=\"JournalEntryPage\" data-pack=\"n5e.rules\" data-tooltip=\"Text Page\"><i class=\"fas fa-file-lines\"></i>Concussed</a>",
        "hidden": false
      },
      {
        "id": "sSuvMnOiYmDzLxRT",
        "name": "Confused",
        "icon": "systems/n5e/icons/svg/confused.svg",
        "referenceId": "@UUID[Compendium.n5e.rules.VfnXFKVz6YkqsAal.JournalEntryPage.SfmusW5B5jOaR0vd#confused]{Confused}",
        "activeEffect": {
          "label": "Confused",
          "icon": "systems/n5e/icons/svg/confused.svg",
          "tint": "",
          "disabled": false,
          "duration": {
            "seconds": null,
            "startTime": null,
            "rounds": null,
            "turns": null,
            "startRound": null,
            "startTurn": null
          },
          "changes": [
            {
              "key": "system.abilities.wis.bonuses.save",
              "mode": 2,
              "value": "-1"
            },
            {
              "key": "system.abilities.wis.bonuses.check",
              "mode": 2,
              "value": "-1"
            }
          ]
        },
        "options": {
          "outputChat": false
        },
        "isNew": false,
        "isChanged": false,
        "enrichedReference": "<a class=\"content-link\" draggable=\"true\" data-hash=\"confused\" data-uuid=\"Compendium.n5e.rules.VfnXFKVz6YkqsAal.JournalEntryPage.SfmusW5B5jOaR0vd\" data-id=\"SfmusW5B5jOaR0vd\" data-type=\"JournalEntryPage\" data-pack=\"n5e.rules\" data-tooltip=\"Text Page\"><i class=\"fas fa-file-lines\"></i>Confused</a>",
        "hidden": false
      },
      {
        "id": "WMyDIP445NUZ1mad",
        "name": "Corroded",
        "icon": "systems/n5e/icons/svg/corroded.svg",
        "referenceId": "@UUID[Compendium.n5e.rules.VfnXFKVz6YkqsAal.JournalEntryPage.SfmusW5B5jOaR0vd#corroded]{Corroded}",
        "activeEffect": {
          "label": "Corroded",
          "icon": "systems/n5e/icons/svg/corroded.svg",
          "tint": "",
          "disabled": false,
          "duration": {
            "seconds": null,
            "startTime": null,
            "rounds": null,
            "turns": null,
            "startRound": null,
            "startTurn": null
          },
          "changes": [
            {
              "key": "system.bonuses.abilities.check",
              "mode": 2,
              "value": "-1"
            },
            {
              "key": "system.bonuses.All-Attacks",
              "mode": 2,
              "value": "-1"
            },
            {
              "key": "flags.midi-qoln5e.OverTime",
              "mode": 2,
              "value": "turn=start, damageRoll=1d4, damageType=acid, label=Corroded,"
            }
          ]
        },
        "options": {
          "outputChat": false
        },
        "isNew": false,
        "isChanged": false,
        "enrichedReference": "<a class=\"content-link\" draggable=\"true\" data-hash=\"corroded\" data-uuid=\"Compendium.n5e.rules.VfnXFKVz6YkqsAal.JournalEntryPage.SfmusW5B5jOaR0vd\" data-id=\"SfmusW5B5jOaR0vd\" data-type=\"JournalEntryPage\" data-pack=\"n5e.rules\" data-tooltip=\"Text Page\"><i class=\"fas fa-file-lines\"></i>Corroded</a>",
        "hidden": false
      },
      {
        "id": "ksbUVbKomWGeeMWj",
        "name": "Dazed",
        "icon": "systems/n5e/icons/svg/dazed.svg",
        "referenceId": "@UUID[Compendium.n5e.rules.VfnXFKVz6YkqsAal.JournalEntryPage.SfmusW5B5jOaR0vd#dazed]{Dazed}",
        "options": {
          "outputChat": false
        },
        "isNew": false,
        "isChanged": false,
        "enrichedReference": "<a class=\"content-link\" draggable=\"true\" data-hash=\"dazed\" data-uuid=\"Compendium.n5e.rules.VfnXFKVz6YkqsAal.JournalEntryPage.SfmusW5B5jOaR0vd\" data-id=\"SfmusW5B5jOaR0vd\" data-type=\"JournalEntryPage\" data-pack=\"n5e.rules\" data-tooltip=\"Text Page\"><i class=\"fas fa-file-lines\"></i>Dazed</a>",
        "hidden": false
      },
      {
        "id": "4ufbQ4CLVsEkA6Ck",
        "name": "Dazzled",
        "icon": "systems/n5e/icons/svg/dazzled.svg",
        "referenceId": "@UUID[Compendium.n5e.rules.VfnXFKVz6YkqsAal.JournalEntryPage.SfmusW5B5jOaR0vd#dazzled]{Dazzled}",
        "activeEffect": {
          "label": "Dazzled",
          "icon": "systems/n5e/icons/svg/dazzled.svg",
          "tint": "",
          "disabled": false,
          "duration": {
            "seconds": null,
            "startTime": null,
            "rounds": null,
            "turns": null,
            "startRound": null,
            "startTurn": null
          },
          "changes": [
            {
              "key": "system.skills.prc.bonuses.check",
              "mode": 2,
              "value": "-2"
            },
            {
              "key": "system.skills.inv.bonuses.check",
              "mode": 2,
              "value": "-2"
            },
            {
              "key": "system.bonuses.rwak.attack",
              "mode": 2,
              "value": "-2"
            },
            {
              "key": "system.bonuses.rgak.attack",
              "mode": 2,
              "value": "-2"
            },
            {
              "key": "flags.midi-qoln5e.DR.rnak",
              "mode": 2,
              "value": "-2"
            },
            {
              "key": "system.bonuses.rtak.attack",
              "mode": 2,
              "value": "-2"
            }
          ]
        },
        "options": {
          "outputChat": false
        },
        "isNew": false,
        "isChanged": false,
        "enrichedReference": "<a class=\"content-link\" draggable=\"true\" data-hash=\"dazzled\" data-uuid=\"Compendium.n5e.rules.VfnXFKVz6YkqsAal.JournalEntryPage.SfmusW5B5jOaR0vd\" data-id=\"SfmusW5B5jOaR0vd\" data-type=\"JournalEntryPage\" data-pack=\"n5e.rules\" data-tooltip=\"Text Page\"><i class=\"fas fa-file-lines\"></i>Dazzled</a>",
        "hidden": false
      },
      {
        "id": "Ep04p7ZGViTVwnBV",
        "name": "Deafened",
        "icon": "systems/n5e/icons/svg/deafened.svg",
        "referenceId": "@UUID[Compendium.n5e.rules.VfnXFKVz6YkqsAal.JournalEntryPage.SfmusW5B5jOaR0vd#deafened]{Deafened}",
        "activeEffect": {
          "label": "Deafened",
          "icon": "systems/n5e/icons/svg/deafened.svg",
          "tint": "",
          "disabled": false,
          "duration": {
            "seconds": null,
            "startTime": null,
            "rounds": null,
            "turns": null,
            "startRound": null,
            "startTurn": null
          },
          "changes": [
            {
              "key": "system.skills.prc.bonuses.passive",
              "mode": 2,
              "value": "-10"
            },
            {
              "key": "flags.midi-qoln5e.disadvantage.ability.save.wis",
              "mode": 0,
              "value": "1"
            },
            {
              "key": "flags.midi-qoln5e.disadvantage.ability.check.wis",
              "mode": 0,
              "value": "1"
            }
          ]
        },
        "macros": [],
        "options": {
          "outputChat": false
        },
        "isNew": false,
        "isChanged": false,
        "enrichedReference": "<a class=\"content-link\" draggable=\"true\" data-hash=\"deafened\" data-uuid=\"Compendium.n5e.rules.VfnXFKVz6YkqsAal.JournalEntryPage.SfmusW5B5jOaR0vd\" data-id=\"SfmusW5B5jOaR0vd\" data-type=\"JournalEntryPage\" data-pack=\"n5e.rules\" data-tooltip=\"Text Page\"><i class=\"fas fa-file-lines\"></i>Deafened</a>",
        "hidden": false
      },
      {
        "id": "cxgY0O2vBkqg21WQ",
        "name": "Dying",
        "icon": "systems/n5e/icons/svg/dying.svg",
        "referenceId": "@UUID[Compendium.n5e.rules.VfnXFKVz6YkqsAal.JournalEntryPage.SfmusW5B5jOaR0vd#dying]{Dying}",
        "activeEffect": {
          "label": "Dying",
          "icon": "systems/n5e/icons/svg/dying.svg",
          "tint": "",
          "disabled": false,
          "duration": {
            "seconds": null,
            "startTime": null,
            "rounds": null,
            "turns": null,
            "startRound": null,
            "startTurn": null
          },
          "changes": [
            {
              "key": "StatusEffect",
              "mode": 2,
              "value": "condition-lab-triggler.BanNBbGkfyfymjrO"
            }
          ]
        },
        "options": {
          "overlay": false,
          "removeOthers": false,
          "outputChat": false,
          "markDefeated": true,
          "blindToken": false,
          "markInvisible": false
        },
        "isNew": false,
        "isChanged": false,
        "enrichedReference": "<a class=\"content-link\" draggable=\"true\" data-hash=\"dying\" data-uuid=\"Compendium.n5e.rules.VfnXFKVz6YkqsAal.JournalEntryPage.SfmusW5B5jOaR0vd\" data-id=\"SfmusW5B5jOaR0vd\" data-type=\"JournalEntryPage\" data-pack=\"n5e.rules\" data-tooltip=\"Text Page\"><i class=\"fas fa-file-lines\"></i>Dying</a>",
        "hidden": false
      },
      {
        "id": "1iqiMdykGk0CJDt3",
        "name": "Envenomed",
        "icon": "systems/n5e/icons/svg/envenomed.svg",
        "referenceId": "@UUID[Compendium.n5e.rules.VfnXFKVz6YkqsAal.JournalEntryPage.SfmusW5B5jOaR0vd#envenomed]{Envenomed}",
        "activeEffect": {
          "label": "Envenomed",
          "icon": "systems/n5e/icons/svg/envenomed.svg",
          "tint": "",
          "disabled": false,
          "duration": {
            "seconds": null,
            "startTime": null,
            "rounds": null,
            "turns": null,
            "startRound": null,
            "startTurn": null
          },
          "changes": [
            {
              "key": "flags.midi-qoln5e.OverTime",
              "mode": 2,
              "value": "turn=start, damageRoll=1d6, damageType=poison, label=Envenomed,"
            }
          ]
        },
        "options": {
          "outputChat": false
        },
        "isNew": false,
        "isChanged": false,
        "enrichedReference": "<a class=\"content-link\" draggable=\"true\" data-hash=\"envenomed\" data-uuid=\"Compendium.n5e.rules.VfnXFKVz6YkqsAal.JournalEntryPage.SfmusW5B5jOaR0vd\" data-id=\"SfmusW5B5jOaR0vd\" data-type=\"JournalEntryPage\" data-pack=\"n5e.rules\" data-tooltip=\"Text Page\"><i class=\"fas fa-file-lines\"></i>Envenomed</a>",
        "hidden": false
      },
      {
        "id": "kdzKIUvcZcXJPQ3D",
        "name": "Exhaustion",
        "icon": "systems/n5e/icons/svg/exhaustion.svg",
        "referenceId": "@UUID[Compendium.n5e.rules.VfnXFKVz6YkqsAal.JournalEntryPage.SfmusW5B5jOaR0vd#exhaustion]{Exhaustion}",
        "activeEffect": {
          "label": "Exhaustion",
          "icon": "systems/n5e/icons/svg/exhaustion.svg",
          "tint": null,
          "disabled": false,
          "duration": {
            "seconds": null,
            "startTime": null,
            "rounds": null,
            "turns": null,
            "startRound": null,
            "startTurn": null,
            "combat": null
          },
          "changes": [
            {
              "key": "system.attributes.ac.bonus",
              "mode": 2,
              "value": "-1"
            },
            {
              "key": "system.bonuses.abilities.check",
              "mode": 2,
              "value": "-1"
            },
            {
              "key": "system.bonuses.abilities.save",
              "mode": 2,
              "value": "-1"
            },
            {
              "key": "system.bonuses.All-Attacks",
              "mode": 2,
              "value": "-1"
            },
            {
              "key": "system.bonuses.All-Damage",
              "mode": 2,
              "value": "-1"
            },
            {
              "key": "system.bonuses.jutsu.dc",
              "mode": 2,
              "value": "-1"
            },
            {
              "key": "system.attributes.movement.all",
              "mode": 0,
              "value": "-2.5"
            }
          ],
          "flags": {
            "condition-lab-triggler": {
              "conditionId": "kdzKIUvcZcXJPQ3D"
            }
          },
          "_id": null,
          "origin": null,
          "transfer": true
        },
        "options": {
          "outputChat": false
        },
        "isNew": false,
        "isChanged": false,
        "enrichedReference": "<a class=\"content-link\" draggable=\"true\" data-hash=\"exhaustion\" data-uuid=\"Compendium.n5e.rules.VfnXFKVz6YkqsAal.JournalEntryPage.SfmusW5B5jOaR0vd\" data-id=\"SfmusW5B5jOaR0vd\" data-type=\"JournalEntryPage\" data-pack=\"n5e.rules\" data-tooltip=\"Text Page\"><i class=\"fas fa-file-lines\"></i>Exhaustion</a>",
        "hidden": false
      },
      {
        "id": "353hqz0NHhQoYh8E",
        "name": "Fear",
        "icon": "systems/n5e/icons/svg/fear.svg",
        "referenceId": "@UUID[Compendium.n5e.rules.VfnXFKVz6YkqsAal.JournalEntryPage.SfmusW5B5jOaR0vd#fear]{Fear}",
        "activeEffect": {
          "label": "Fear",
          "icon": "systems/n5e/icons/svg/fear.svg",
          "tint": null,
          "disabled": false,
          "duration": {
            "seconds": null,
            "startTime": null,
            "rounds": null,
            "turns": null,
            "startRound": null,
            "startTurn": null,
            "combat": null
          },
          "changes": [
            {
              "key": "flags.midi-qoln5e.disadvantage.ability.check.all",
              "mode": 0,
              "value": "1",
              "priority": null
            }
          ],
          "flags": {
            "condition-lab-triggler": {
              "conditionId": "353hqz0NHhQoYh8E"
            }
          },
          "_id": null,
          "origin": null,
          "transfer": true
        },
        "options": {
          "outputChat": false
        },
        "isNew": false,
        "isChanged": false,
        "enrichedReference": "<a class=\"content-link\" draggable=\"true\" data-hash=\"fear\" data-uuid=\"Compendium.n5e.rules.VfnXFKVz6YkqsAal.JournalEntryPage.SfmusW5B5jOaR0vd\" data-id=\"SfmusW5B5jOaR0vd\" data-type=\"JournalEntryPage\" data-pack=\"n5e.rules\" data-tooltip=\"Text Page\"><i class=\"fas fa-file-lines\"></i>Fear</a>",
        "hidden": false
      },
      {
        "id": "wfjIysqtfYeEtJqh",
        "name": "Fear 2",
        "icon": "systems/n5e/icons/svg/fear-2.svg",
        "referenceId": "@UUID[Compendium.n5e.rules.VfnXFKVz6YkqsAal.JournalEntryPage.SfmusW5B5jOaR0vd#fear]{Fear}",
        "activeEffect": {
          "label": "Fear 2",
          "icon": "systems/n5e/icons/svg/fear-2.svg",
          "tint": "",
          "disabled": false,
          "duration": {
            "seconds": null,
            "startTime": null,
            "rounds": null,
            "turns": null,
            "startRound": null,
            "startTurn": null
          },
          "changes": [
            {
              "key": "flags.midi-qoln5e.disadvantage.ability.check.all",
              "mode": 0,
              "value": "1"
            },
            {
              "key": "flags.midi-qoln5e.disadvantage.attack.all",
              "mode": 0,
              "value": "1"
            }
          ]
        },
        "options": {
          "outputChat": false
        },
        "isNew": false,
        "isChanged": false,
        "enrichedReference": "<a class=\"content-link\" draggable=\"true\" data-hash=\"fear\" data-uuid=\"Compendium.n5e.rules.VfnXFKVz6YkqsAal.JournalEntryPage.SfmusW5B5jOaR0vd\" data-id=\"SfmusW5B5jOaR0vd\" data-type=\"JournalEntryPage\" data-pack=\"n5e.rules\" data-tooltip=\"Text Page\"><i class=\"fas fa-file-lines\"></i>Fear</a>",
        "hidden": false
      },
      {
        "id": "fkO5d9oD3jnGgcSk",
        "name": "Fear 3",
        "icon": "systems/n5e/icons/svg/fear-3.svg",
        "referenceId": "@UUID[Compendium.n5e.rules.VfnXFKVz6YkqsAal.JournalEntryPage.SfmusW5B5jOaR0vd#fear]{Fear}",
        "activeEffect": {
          "label": "Fear 3",
          "icon": "systems/n5e/icons/svg/fear-3.svg",
          "tint": "",
          "disabled": false,
          "duration": {
            "seconds": null,
            "startTime": null,
            "rounds": null,
            "turns": null,
            "startRound": null,
            "startTurn": null
          },
          "changes": [
            {
              "key": "flags.midi-qoln5e.disadvantage.ability.check.all",
              "mode": 0,
              "value": "1"
            },
            {
              "key": "flags.midi-qoln5e.disadvantage.attack.all",
              "mode": 0,
              "value": "1"
            },
            {
              "key": "system.traits.ci.value",
              "mode": 2,
              "value": "concentration"
            }
          ]
        },
        "options": {
          "outputChat": false
        },
        "isNew": false,
        "isChanged": false,
        "enrichedReference": "<a class=\"content-link\" draggable=\"true\" data-hash=\"fear\" data-uuid=\"Compendium.n5e.rules.VfnXFKVz6YkqsAal.JournalEntryPage.SfmusW5B5jOaR0vd\" data-id=\"SfmusW5B5jOaR0vd\" data-type=\"JournalEntryPage\" data-pack=\"n5e.rules\" data-tooltip=\"Text Page\"><i class=\"fas fa-file-lines\"></i>Fear</a>",
        "hidden": false
      },
      {
        "id": "8gwBf9jqI9w0v2vN",
        "name": "Fear 4",
        "icon": "systems/n5e/icons/svg/fear-4.svg",
        "referenceId": "@UUID[Compendium.n5e.rules.VfnXFKVz6YkqsAal.JournalEntryPage.SfmusW5B5jOaR0vd#fear]{Fear}",
        "activeEffect": {
          "label": "Fear 4",
          "icon": "systems/n5e/icons/svg/fear-4.svg",
          "tint": "",
          "disabled": false,
          "duration": {
            "seconds": null,
            "startTime": null,
            "rounds": null,
            "turns": null,
            "startRound": null,
            "startTurn": null
          },
          "changes": [
            {
              "key": "flags.midi-qoln5e.disadvantage.ability.check.all",
              "mode": 0,
              "value": "1"
            },
            {
              "key": "flags.midi-qoln5e.disadvantage.attack.all",
              "mode": 0,
              "value": "1"
            },
            {
              "key": "system.traits.ci.value",
              "mode": 2,
              "value": "concentration"
            },
            {
              "key": "flags.midi-qoln5e.disadvantage.ability.save.str",
              "mode": 0,
              "value": "1"
            },
            {
              "key": "flags.midi-qoln5e.disadvantage.ability.save.dex",
              "mode": 0,
              "value": "1"
            },
            {
              "key": "flags.midi-qoln5e.disadvantage.ability.save.int",
              "mode": 0,
              "value": "1"
            }
          ]
        },
        "options": {
          "outputChat": false
        },
        "isNew": false,
        "isChanged": false,
        "enrichedReference": "<a class=\"content-link\" draggable=\"true\" data-hash=\"fear\" data-uuid=\"Compendium.n5e.rules.VfnXFKVz6YkqsAal.JournalEntryPage.SfmusW5B5jOaR0vd\" data-id=\"SfmusW5B5jOaR0vd\" data-type=\"JournalEntryPage\" data-pack=\"n5e.rules\" data-tooltip=\"Text Page\"><i class=\"fas fa-file-lines\"></i>Fear</a>",
        "hidden": false
      },
      {
        "id": "eARy3INJFY4u1yII",
        "name": "Fear 5",
        "icon": "systems/n5e/icons/svg/fear-5.svg",
        "referenceId": "@UUID[Compendium.n5e.rules.VfnXFKVz6YkqsAal.JournalEntryPage.SfmusW5B5jOaR0vd#fear]{Fear}",
        "activeEffect": {
          "label": "fear 5",
          "icon": "systems/n5e/icons/svg/fear-5.svg",
          "tint": null,
          "disabled": false,
          "duration": {
            "seconds": null,
            "startTime": null,
            "rounds": null,
            "turns": null,
            "startRound": null,
            "startTurn": null,
            "combat": null
          },
          "changes": [
            {
              "key": "flags.midi-qoln5e.disadvantage.ability.check.all",
              "mode": 0,
              "value": "1"
            },
            {
              "key": "flags.midi-qoln5e.disadvantage.attack.all",
              "mode": 0,
              "value": "1"
            },
            {
              "key": "system.traits.ci.value",
              "mode": 2,
              "value": "concentration"
            },
            {
              "key": "flags.midi-qoln5e.disadvantage.ability.save.str",
              "mode": 0,
              "value": "1"
            },
            {
              "key": "flags.midi-qoln5e.disadvantage.ability.save.dex",
              "mode": 0,
              "value": "1"
            },
            {
              "key": "flags.midi-qoln5e.disadvantage.ability.save.int",
              "mode": 0,
              "value": "1"
            },
            {
              "key": "StatusEffect",
              "mode": 0,
              "value": "condition-lab-triggler.Dxk5mxPKwHLyLu4B"
            }
          ],
          "flags": {
            "condition-lab-triggler": {
              "conditionId": "eARy3INJFY4u1yII"
            }
          },
          "_id": null,
          "origin": null,
          "transfer": true
        },
        "options": {
          "outputChat": false
        },
        "isNew": false,
        "isChanged": false,
        "enrichedReference": "<a class=\"content-link\" draggable=\"true\" data-hash=\"fear\" data-uuid=\"Compendium.n5e.rules.VfnXFKVz6YkqsAal.JournalEntryPage.SfmusW5B5jOaR0vd\" data-id=\"SfmusW5B5jOaR0vd\" data-type=\"JournalEntryPage\" data-pack=\"n5e.rules\" data-tooltip=\"Text Page\"><i class=\"fas fa-file-lines\"></i>Fear</a>",
        "hidden": false
      },
      {
        "id": "HypdeRCPTCLHrSGc",
        "name": "Grappled",
        "icon": "systems/n5e/icons/svg/grappled.svg",
        "referenceId": "@UUID[Compendium.n5e.rules.VfnXFKVz6YkqsAal.JournalEntryPage.SfmusW5B5jOaR0vd#grappled]{Grappled}",
        "activeEffect": {
          "label": "Grappled",
          "icon": "systems/n5e/icons/svg/grappled.svg",
          "tint": null,
          "disabled": false,
          "duration": {
            "seconds": null,
            "startTime": null,
            "rounds": null,
            "turns": null,
            "startRound": null,
            "startTurn": null,
            "combat": null
          },
          "changes": [
            {
              "key": "system.attributes.movement.all",
              "mode": 0,
              "value": "0",
              "priority": null
            }
          ],
          "flags": {
            "condition-lab-triggler": {
              "conditionId": "NpxYPAatFn6Dz8CR"
            }
          },
          "_id": null,
          "origin": null,
          "transfer": true
        },
        "options": {
          "outputChat": false
        },
        "isNew": false,
        "isChanged": false,
        "enrichedReference": "<a class=\"content-link\" draggable=\"true\" data-hash=\"grappled\" data-uuid=\"Compendium.n5e.rules.VfnXFKVz6YkqsAal.JournalEntryPage.SfmusW5B5jOaR0vd\" data-id=\"SfmusW5B5jOaR0vd\" data-type=\"JournalEntryPage\" data-pack=\"n5e.rules\" data-tooltip=\"Text Page\"><i class=\"fas fa-file-lines\"></i>Grappled</a>",
        "hidden": false
      },
      {
        "id": "BanNBbGkfyfymjrO",
        "name": "Incapacitated",
        "icon": "systems/n5e/icons/svg/incapacitated.svg",
        "referenceId": "@UUID[Compendium.n5e.rules.VfnXFKVz6YkqsAal.JournalEntryPage.SfmusW5B5jOaR0vd#incapacitated]{Incapacitated}",
        "activeEffect": {
          "label": "Incapacitated",
          "icon": "systems/n5e/icons/svg/incapacitated.svg",
          "tint": "",
          "disabled": false,
          "duration": {
            "seconds": null,
            "startTime": null,
            "rounds": null,
            "turns": null,
            "startRound": null,
            "startTurn": null
          },
          "changes": [
            {
              "key": "flags.midi-qoln5e.fail.all",
              "mode": 0,
              "value": "1"
            }
          ]
        },
        "options": {
          "outputChat": false
        },
        "isNew": false,
        "isChanged": false,
        "enrichedReference": "<a class=\"content-link\" draggable=\"true\" data-hash=\"incapacitated\" data-uuid=\"Compendium.n5e.rules.VfnXFKVz6YkqsAal.JournalEntryPage.SfmusW5B5jOaR0vd\" data-id=\"SfmusW5B5jOaR0vd\" data-type=\"JournalEntryPage\" data-pack=\"n5e.rules\" data-tooltip=\"Text Page\"><i class=\"fas fa-file-lines\"></i>Incapacitated</a>",
        "hidden": false
      },
      {
        "id": "5tcQpwv7uTj8PFd6",
        "name": "Invisible",
        "icon": "systems/n5e/icons/svg/invisible.svg",
        "referenceId": "@UUID[Compendium.n5e.rules.VfnXFKVz6YkqsAal.JournalEntryPage.SfmusW5B5jOaR0vd#invisible]{Invisible}",
        "activeEffect": {
          "label": "Invisible",
          "icon": "systems/n5e/icons/svg/invisible.svg",
          "tint": "",
          "disabled": false,
          "duration": {
            "seconds": null,
            "startTime": null,
            "rounds": null,
            "turns": null,
            "startRound": null,
            "startTurn": null
          },
          "changes": [
            {
              "key": "flags.midi-qoln5e.advantage.attack.all",
              "mode": 0,
              "value": "1"
            },
            {
              "key": "flags.midi-qoln5e.grants.disadvantage.attack.all",
              "mode": 0,
              "value": "1"
            }
          ]
        },
        "options": {
          "markInvisible": true,
          "outputChat": false
        },
        "isNew": false,
        "isChanged": false,
        "enrichedReference": "<a class=\"content-link\" draggable=\"true\" data-hash=\"invisible\" data-uuid=\"Compendium.n5e.rules.VfnXFKVz6YkqsAal.JournalEntryPage.SfmusW5B5jOaR0vd\" data-id=\"SfmusW5B5jOaR0vd\" data-type=\"JournalEntryPage\" data-pack=\"n5e.rules\" data-tooltip=\"Text Page\"><i class=\"fas fa-file-lines\"></i>Invisible</a>",
        "hidden": false
      },
      {
        "id": "0tUv75hFbcR6qbK4",
        "name": "Lacerated",
        "icon": "systems/n5e/icons/svg/lacerated.svg",
        "referenceId": "@UUID[Compendium.n5e.rules.VfnXFKVz6YkqsAal.JournalEntryPage.SfmusW5B5jOaR0vd#lacerated]{Lacerated}",
        "activeEffect": {
          "label": "Lacerated",
          "icon": "systems/n5e/icons/svg/lacerated.svg",
          "tint": "",
          "disabled": false,
          "duration": {
            "seconds": null,
            "startTime": null,
            "rounds": null,
            "turns": null,
            "startRound": null,
            "startTurn": null
          },
          "changes": [
            {
              "key": "flags.midi-qoln5e.OverTime",
              "mode": 2,
              "value": "turn=start, damageRoll=1d6, damageType=necrotic, label=Lacerated,"
            }
          ]
        },
        "options": {
          "outputChat": false
        },
        "isNew": false,
        "isChanged": false,
        "enrichedReference": "<a class=\"content-link\" draggable=\"true\" data-hash=\"lacerated\" data-uuid=\"Compendium.n5e.rules.VfnXFKVz6YkqsAal.JournalEntryPage.SfmusW5B5jOaR0vd\" data-id=\"SfmusW5B5jOaR0vd\" data-type=\"JournalEntryPage\" data-pack=\"n5e.rules\" data-tooltip=\"Text Page\"><i class=\"fas fa-file-lines\"></i>Lacerated</a>",
        "hidden": false
      },
      {
        "id": "BkonYWueS0KzWWJ6",
        "name": "Maddened",
        "icon": "systems/n5e/icons/svg/maddened.svg",
        "referenceId": "@UUID[Compendium.n5e.rules.VfnXFKVz6YkqsAal.JournalEntryPage.SfmusW5B5jOaR0vd#maddened]{Maddened}",
        "options": {
          "outputChat": false
        },
        "isNew": false,
        "isChanged": false,
        "enrichedReference": "<a class=\"content-link\" draggable=\"true\" data-hash=\"maddened\" data-uuid=\"Compendium.n5e.rules.VfnXFKVz6YkqsAal.JournalEntryPage.SfmusW5B5jOaR0vd\" data-id=\"SfmusW5B5jOaR0vd\" data-type=\"JournalEntryPage\" data-pack=\"n5e.rules\" data-tooltip=\"Text Page\"><i class=\"fas fa-file-lines\"></i>Maddened</a>",
        "hidden": false
      },
      {
        "id": "70EcTo5aKMzT3Jxj",
        "name": "Paralyzed",
        "icon": "systems/n5e/icons/svg/paralyzed.svg",
        "referenceId": "@UUID[Compendium.n5e.rules.VfnXFKVz6YkqsAal.JournalEntryPage.SfmusW5B5jOaR0vd#paralyzed]{Paralyzed}",
        "activeEffect": {
          "label": "Paralyzed",
          "icon": "systems/n5e/icons/svg/paralyzed.svg",
          "tint": null,
          "disabled": false,
          "duration": {
            "seconds": null,
            "startTime": null,
            "rounds": null,
            "turns": null,
            "startRound": null,
            "startTurn": null,
            "combat": null
          },
          "changes": [
            {
              "key": "StatusEffect",
              "mode": 0,
              "value": "condition-lab-triggler.BanNBbGkfyfymjrO"
            },
            {
              "key": "system.attributes.movement.all",
              "mode": 0,
              "value": "0"
            },
            {
              "key": "flags.midi-qoln5e.fail.ability.save.str",
              "mode": 0,
              "value": "1"
            },
            {
              "key": "flags.midi-qoln5e.fail.ability.save.dex",
              "mode": 0,
              "value": "1"
            },
            {
              "key": "flags.midi-qoln5e.grants.advantage.attack.all",
              "mode": 0,
              "value": "1"
            },
            {
              "key": "flags.midi-qoln5e.grants.critical.mgak",
              "mode": 0,
              "value": "1"
            },
            {
              "key": "flags.midi-qoln5e.grants.critical.mnak",
              "mode": 0,
              "value": "1"
            },
            {
              "key": "flags.midi-qoln5e.grants.critical.mtak",
              "mode": 0,
              "value": "1"
            },
            {
              "key": "flags.midi-qoln5e.grants.critical.mwak",
              "mode": 0,
              "value": "1"
            }
          ],
          "flags": {
            "condition-lab-triggler": {
              "conditionId": "70EcTo5aKMzT3Jxj"
            }
          },
          "_id": null,
          "origin": null,
          "transfer": true
        },
        "options": {
          "outputChat": false
        },
        "isNew": false,
        "isChanged": false,
        "enrichedReference": "<a class=\"content-link\" draggable=\"true\" data-hash=\"paralyzed\" data-uuid=\"Compendium.n5e.rules.VfnXFKVz6YkqsAal.JournalEntryPage.SfmusW5B5jOaR0vd\" data-id=\"SfmusW5B5jOaR0vd\" data-type=\"JournalEntryPage\" data-pack=\"n5e.rules\" data-tooltip=\"Text Page\"><i class=\"fas fa-file-lines\"></i>Paralyzed</a>",
        "hidden": false
      },
      {
        "id": "iH0VVnweosDrRhue",
        "name": "Petrified",
        "icon": "systems/n5e/icons/svg/petrified.svg",
        "referenceId": "@UUID[Compendium.n5e.rules.VfnXFKVz6YkqsAal.JournalEntryPage.SfmusW5B5jOaR0vd#petrified]{Petrified}",
        "activeEffect": {
          "label": "Petrified",
          "icon": "systems/n5e/icons/svg/petrified.svg",
          "tint": null,
          "disabled": false,
          "duration": {
            "seconds": null,
            "startTime": null,
            "rounds": null,
            "turns": null,
            "startRound": null,
            "startTurn": null,
            "combat": null
          },
          "changes": [
            {
              "key": "StatusEffect",
              "mode": 0,
              "value": "condition-lab-triggler.BanNBbGkfyfymjrO",
              "priority": null
            },
            {
              "key": "system.attributes.movement.all",
              "mode": 0,
              "value": "0",
              "priority": null
            },
            {
              "key": "flags.midi-qoln5e.grants.advantage.attack.all",
              "mode": 0,
              "value": "1",
              "priority": null
            },
            {
              "key": "flags.midi-qoln5e.fail.ability.save.str",
              "mode": 0,
              "value": "1",
              "priority": null
            },
            {
              "key": "flags.midi-qoln5e.fail.ability.save.dex",
              "mode": 0,
              "value": "1",
              "priority": null
            },
            {
              "key": "system.traits.dr.all",
              "mode": 0,
              "value": "1",
              "priority": null
            },
            {
              "key": "system.traits.ci.value",
              "mode": 2,
              "value": "poisoned",
              "priority": null
            },
            {
              "key": "system.traits.di.value",
              "mode": 2,
              "value": "poison",
              "priority": null
            }
          ],
          "flags": {
            "condition-lab-triggler": {
              "conditionId": "iH0VVnweosDrRhue"
            }
          },
          "_id": null,
          "origin": null,
          "transfer": true
        },
        "options": {
          "outputChat": false
        },
        "isNew": false,
        "isChanged": false,
        "enrichedReference": "<a class=\"content-link\" draggable=\"true\" data-hash=\"petrified\" data-uuid=\"Compendium.n5e.rules.VfnXFKVz6YkqsAal.JournalEntryPage.SfmusW5B5jOaR0vd\" data-id=\"SfmusW5B5jOaR0vd\" data-type=\"JournalEntryPage\" data-pack=\"n5e.rules\" data-tooltip=\"Text Page\"><i class=\"fas fa-file-lines\"></i>Petrified</a>",
        "hidden": false
      },
      {
        "id": "USAcsNnHdEMaQDGF",
        "name": "Poisoned",
        "icon": "systems/n5e/icons/svg/poisoned.svg",
        "referenceId": "@UUID[Compendium.n5e.rules.VfnXFKVz6YkqsAal.JournalEntryPage.SfmusW5B5jOaR0vd#poisoned]{Poisoned}",
        "activeEffect": {
          "label": "Poisoned",
          "icon": "systems/n5e/icons/svg/poisoned.svg",
          "tint": null,
          "disabled": false,
          "duration": {
            "seconds": null,
            "startTime": null,
            "rounds": null,
            "turns": null,
            "startRound": null,
            "startTurn": null,
            "combat": null
          },
          "changes": [
            {
              "key": "flags.midi-qoln5e.disadvantage.attack.all",
              "mode": 2,
              "value": "1"
            },
            {
              "key": "flags.midi-qoln5e.disadvantage.ability.check.all",
              "mode": 2,
              "value": "1"
            }
          ],
          "flags": {
            "condition-lab-triggler": {
              "conditionId": "XEthNFj4lqX5VmGK"
            }
          },
          "_id": null,
          "origin": null,
          "transfer": true
        },
        "options": {
          "outputChat": false
        },
        "isNew": false,
        "isChanged": false,
        "enrichedReference": "<a class=\"content-link\" draggable=\"true\" data-hash=\"poisoned\" data-uuid=\"Compendium.n5e.rules.VfnXFKVz6YkqsAal.JournalEntryPage.SfmusW5B5jOaR0vd\" data-id=\"SfmusW5B5jOaR0vd\" data-type=\"JournalEntryPage\" data-pack=\"n5e.rules\" data-tooltip=\"Text Page\"><i class=\"fas fa-file-lines\"></i>Poisoned</a>",
        "hidden": false
      },
      {
        "id": "bVQjB46dnKB5eFmS",
        "name": "Prone",
        "icon": "systems/n5e/icons/svg/prone.svg",
        "referenceId": "@UUID[Compendium.n5e.rules.VfnXFKVz6YkqsAal.JournalEntryPage.SfmusW5B5jOaR0vd#prone]{Prone}",
        "activeEffect": {
          "label": "Prone",
          "icon": "systems/n5e/icons/svg/prone.svg",
          "tint": "",
          "disabled": false,
          "duration": {
            "seconds": null,
            "startTime": null,
            "rounds": null,
            "turns": null,
            "startRound": null,
            "startTurn": null
          },
          "changes": [
            {
              "key": "flags.midi-qoln5e.disadvantage.attack.all",
              "mode": 0,
              "value": "1"
            },
            {
              "key": "flags.midi-qoln5e.grants.advantage.attack.mgak",
              "mode": 0,
              "value": "1"
            },
            {
              "key": "flags.midi-qoln5e.grants.advantage.attack.mnak",
              "mode": 0,
              "value": "1"
            },
            {
              "key": "flags.midi-qoln5e.grants.advantage.attack.mtak",
              "mode": 0,
              "value": "1"
            },
            {
              "key": "flags.midi-qoln5e.grants.advantage.attack.mwak",
              "mode": 0,
              "value": "1"
            },
            {
              "key": "flags.midi-qoln5e.grants.disadvantage.attack.rgak",
              "mode": 0,
              "value": "1"
            },
            {
              "key": "flags.midi-qoln5e.grants.disadvantage.attack.rnak",
              "mode": 0,
              "value": "1"
            },
            {
              "key": "flags.midi-qoln5e.grants.disadvantage.attack.rtak",
              "mode": 0,
              "value": "1"
            },
            {
              "key": "flags.midi-qoln5e.grants.disadvantage.attack.rwak",
              "mode": 0,
              "value": "1"
            }
          ]
        },
        "options": {
          "outputChat": false
        },
        "isNew": false,
        "isChanged": false,
        "enrichedReference": "<a class=\"content-link\" draggable=\"true\" data-hash=\"prone\" data-uuid=\"Compendium.n5e.rules.VfnXFKVz6YkqsAal.JournalEntryPage.SfmusW5B5jOaR0vd\" data-id=\"SfmusW5B5jOaR0vd\" data-type=\"JournalEntryPage\" data-pack=\"n5e.rules\" data-tooltip=\"Text Page\"><i class=\"fas fa-file-lines\"></i>Prone</a>",
        "hidden": false
      },
      {
        "id": "OzcZah9qydpSIOuF",
        "name": "Restrained",
        "icon": "systems/n5e/icons/svg/restrained.svg",
        "referenceId": "@UUID[Compendium.n5e.rules.VfnXFKVz6YkqsAal.JournalEntryPage.SfmusW5B5jOaR0vd#restrained]{Restrained}",
        "activeEffect": {
          "label": "Restrained",
          "icon": "systems/n5e/icons/svg/restrained.svg",
          "tint": null,
          "disabled": false,
          "duration": {
            "seconds": null,
            "startTime": null,
            "rounds": null,
            "turns": null,
            "startRound": null,
            "startTurn": null,
            "combat": null
          },
          "changes": [
            {
              "key": "system.attributes.movement.all",
              "mode": 0,
              "value": "0",
              "priority": null
            },
            {
              "key": "flags.midi-qoln5e.grants.advantage.attack.all",
              "mode": 0,
              "value": "1",
              "priority": null
            },
            {
              "key": "flags.midi-qoln5e.disadvantage.attack.all",
              "mode": 0,
              "value": "1",
              "priority": null
            },
            {
              "key": "flags.midi-qoln5e.disadvantage.ability.save.dex",
              "mode": 0,
              "value": "1",
              "priority": null
            }
          ],
          "flags": {
            "condition-lab-triggler": {
              "conditionId": "VaUIeJbNvG1D5Umv"
            }
          },
          "_id": null,
          "origin": null,
          "transfer": true
        },
        "options": {
          "outputChat": false
        },
        "isNew": false,
        "isChanged": false,
        "enrichedReference": "<a class=\"content-link\" draggable=\"true\" data-hash=\"restrained\" data-uuid=\"Compendium.n5e.rules.VfnXFKVz6YkqsAal.JournalEntryPage.SfmusW5B5jOaR0vd\" data-id=\"SfmusW5B5jOaR0vd\" data-type=\"JournalEntryPage\" data-pack=\"n5e.rules\" data-tooltip=\"Text Page\"><i class=\"fas fa-file-lines\"></i>Restrained</a>",
        "hidden": false
      },
      {
        "id": "P91oGeY5Cd1trxvl",
        "name": "Sealed",
        "icon": "systems/n5e/icons/svg/sealed.svg",
        "referenceId": "@UUID[Compendium.n5e.rules.JournalEntry.VfnXFKVz6YkqsAal.JournalEntryPage.SfmusW5B5jOaR0vd#sealed]{Sealed}",
        "applyTrigger": null,
        "removeTrigger": null,
        "activeEffect": {
          "name": "Sealed",
          "tint": "",
          "disabled": false,
          "duration": {
            "seconds": null,
            "startTime": null,
            "rounds": null,
            "turns": null,
            "startRound": null,
            "startTurn": null
          },
          "flags": {
            "ActiveAuras": {
              "isAura": false,
              "aura": "None",
              "radius": "",
              "alignment": "",
              "type": "",
              "ignoreSelf": false,
              "height": false,
              "hidden": false,
              "displayTemp": false,
              "hostile": false,
              "onlyOnce": false
            }
          },
          "icon": "systems/n5e/icons/svg/sealed.svg",
          "changes": [
            {
              "key": "system.attributes.ninjutsudc",
              "mode": 2,
              "value": "-1"
            },
            {
              "key": "system.attributes.genjutsudc",
              "mode": 2,
              "value": "-1"
            }
          ]
        },
        "macros": null,
        "options": {
          "outputChat": false
        },
        "isNew": false,
        "isChanged": false,
        "enrichedReference": "<a class=\"content-link\" draggable=\"true\" data-hash=\"sealed\" data-uuid=\"Compendium.n5e.rules.JournalEntry.VfnXFKVz6YkqsAal.JournalEntryPage.SfmusW5B5jOaR0vd\" data-id=\"SfmusW5B5jOaR0vd\" data-type=\"JournalEntryPage\" data-pack=\"n5e.rules\" data-tooltip=\"Text Page\"><i class=\"fas fa-file-lines\"></i>Sealed</a>",
        "hidden": false
      },
      {
        "id": "K8KBQLDvY3GyLgMJ",
        "name": "Shocked",
        "icon": "systems/n5e/icons/svg/shocked.svg",
        "referenceId": "@UUID[Compendium.n5e.rules.VfnXFKVz6YkqsAal.JournalEntryPage.SfmusW5B5jOaR0vd#shocked]{Shocked}",
        "activeEffect": {
          "label": "Shocked",
          "icon": "systems/n5e/icons/svg/shocked.svg",
          "tint": null,
          "disabled": false,
          "duration": {
            "seconds": 60,
            "startTime": null,
            "rounds": null,
            "turns": null,
            "startRound": null,
            "startTurn": null,
            "combat": null
          },
          "changes": [
            {
              "key": "flags.midi-qoln5e.DR.lightning",
              "mode": 5,
              "value": "-1d6"
            },
            {
              "key": "system.abilities.str.bonuses.save",
              "mode": 2,
              "value": "-1"
            },
            {
              "key": "system.abilities.str.bonuses.check",
              "mode": 2,
              "value": "-1"
            }
          ],
          "flags": {
            "condition-lab-triggler": {
              "conditionId": "K8KBQLDvY3GyLgMJ"
            }
          },
          "_id": null,
          "origin": null,
          "transfer": true
        },
        "options": {
          "outputChat": false
        },
        "isNew": false,
        "isChanged": false,
        "enrichedReference": "<a class=\"content-link\" draggable=\"true\" data-hash=\"shocked\" data-uuid=\"Compendium.n5e.rules.VfnXFKVz6YkqsAal.JournalEntryPage.SfmusW5B5jOaR0vd\" data-id=\"SfmusW5B5jOaR0vd\" data-type=\"JournalEntryPage\" data-pack=\"n5e.rules\" data-tooltip=\"Text Page\"><i class=\"fas fa-file-lines\"></i>Shocked</a>",
        "hidden": false
      },
      {
        "id": "qG9oXBhpSG2NwPAj",
        "name": "Slowed",
        "icon": "systems/n5e/icons/svg/slowed.svg",
        "referenceId": "@UUID[Compendium.n5e.rules.VfnXFKVz6YkqsAal.JournalEntryPage.SfmusW5B5jOaR0vd#slowed]{Slowed}",
        "activeEffect": {
          "label": "Slowed",
          "icon": "systems/n5e/icons/svg/slowed.svg",
          "tint": null,
          "disabled": false,
          "duration": {
            "seconds": 60,
            "startTime": null,
            "rounds": null,
            "turns": null,
            "startRound": null,
            "startTurn": null,
            "combat": null
          },
          "changes": [
            {
              "key": "system.attributes.movement.all",
              "mode": 0,
              "value": "-10",
              "priority": null
            },
            {
              "key": "system.attributes.ac.bonus",
              "mode": 2,
              "value": "-2",
              "priority": null
            },
            {
              "key": "flags.midi-qoln5e.disadvantage.ability.save.dex",
              "mode": 0,
              "value": "1",
              "priority": null
            }
          ],
          "flags": {
            "condition-lab-triggler": {
              "conditionId": "qG9oXBhpSG2NwPAj"
            }
          },
          "_id": null,
          "origin": null,
          "transfer": true
        },
        "options": {
          "outputChat": false
        },
        "isNew": false,
        "isChanged": false,
        "enrichedReference": "<a class=\"content-link\" draggable=\"true\" data-hash=\"slowed\" data-uuid=\"Compendium.n5e.rules.VfnXFKVz6YkqsAal.JournalEntryPage.SfmusW5B5jOaR0vd\" data-id=\"SfmusW5B5jOaR0vd\" data-type=\"JournalEntryPage\" data-pack=\"n5e.rules\" data-tooltip=\"Text Page\"><i class=\"fas fa-file-lines\"></i>Slowed</a>",
        "hidden": false
      },
      {
        "id": "WgfAxKDj8zJLInU4",
        "name": "Staggered",
        "icon": "systems/n5e/icons/svg/staggered.svg",
        "referenceId": "@UUID[Compendium.n5e.rules.VfnXFKVz6YkqsAal.JournalEntryPage.SfmusW5B5jOaR0vd#staggered]{Staggered}",
        "activeEffect": {
          "label": "Staggered",
          "icon": "systems/n5e/icons/svg/staggered.svg",
          "tint": null,
          "disabled": false,
          "duration": {
            "seconds": null,
            "startTime": null,
            "rounds": null,
            "turns": null,
            "startRound": null,
            "startTurn": null,
            "combat": null
          },
          "changes": [
            {
              "key": "system.bonuses.mtak.attack",
              "mode": 2,
              "value": "-5"
            },
            {
              "key": "system.bonuses.rtak.attack",
              "mode": 2,
              "value": "-5"
            },
            {
              "key": "system.bonuses.mwak.attack",
              "mode": 2,
              "value": "-5"
            },
            {
              "key": "system.bonuses.rwak.attack",
              "mode": 2,
              "value": "-5"
            },
            {
              "key": "system.abilities.str.bonuses.check",
              "mode": 2,
              "value": "-5"
            },
            {
              "key": "system.abilities.dex.bonuses.check",
              "mode": 2,
              "value": "-5"
            },
            {
              "key": "flags.midi-qoln5e.DR.bludgeoning",
              "mode": 5,
              "value": "-10"
            },
            {
              "key": "flags.midi-qoln5e.DR.earth",
              "mode": 5,
              "value": "-10"
            }
          ],
          "flags": {
            "condition-lab-triggler": {
              "conditionId": "WgfAxKDj8zJLInU4"
            }
          },
          "_id": null,
          "origin": null,
          "transfer": true
        },
        "options": {
          "outputChat": false
        },
        "isNew": false,
        "isChanged": false,
        "enrichedReference": "<a class=\"content-link\" draggable=\"true\" data-hash=\"staggered\" data-uuid=\"Compendium.n5e.rules.VfnXFKVz6YkqsAal.JournalEntryPage.SfmusW5B5jOaR0vd\" data-id=\"SfmusW5B5jOaR0vd\" data-type=\"JournalEntryPage\" data-pack=\"n5e.rules\" data-tooltip=\"Text Page\"><i class=\"fas fa-file-lines\"></i>Staggered</a>",
        "hidden": false
      },
      {
        "id": "Dxk5mxPKwHLyLu4B",
        "name": "Stunned",
        "icon": "systems/n5e/icons/svg/stunned.svg",
        "referenceId": "@UUID[Compendium.n5e.rules.VfnXFKVz6YkqsAal.JournalEntryPage.SfmusW5B5jOaR0vd#stunned]{Stunned}",
        "activeEffect": {
          "label": "Stunned",
          "icon": "systems/n5e/icons/svg/stunned.svg",
          "tint": null,
          "disabled": false,
          "duration": {
            "seconds": null,
            "startTime": null,
            "rounds": null,
            "turns": null,
            "startRound": null,
            "startTurn": null,
            "combat": null
          },
          "changes": [
            {
              "key": "StatusEffect",
              "mode": 0,
              "value": "condition-lab-triggler.BanNBbGkfyfymjrO",
              "priority": null
            },
            {
              "key": "system.attributes.movement.all",
              "mode": 0,
              "value": "0",
              "priority": null
            },
            {
              "key": "flags.midi-qoln5e.fail.ability.save.str",
              "mode": 0,
              "value": "1",
              "priority": null
            },
            {
              "key": "flags.midi-qoln5e.fail.ability.save.dex",
              "mode": 0,
              "value": "1",
              "priority": null
            },
            {
              "key": "flags.midi-qoln5e.grants.advantage.attack.all",
              "mode": 0,
              "value": "1",
              "priority": null
            }
          ],
          "flags": {
            "condition-lab-triggler": {
              "conditionId": "Dxk5mxPKwHLyLu4B"
            }
          },
          "_id": null,
          "origin": null,
          "transfer": true
        },
        "options": {
          "outputChat": false
        },
        "isNew": false,
        "isChanged": false,
        "enrichedReference": "<a class=\"content-link\" draggable=\"true\" data-hash=\"stunned\" data-uuid=\"Compendium.n5e.rules.VfnXFKVz6YkqsAal.JournalEntryPage.SfmusW5B5jOaR0vd\" data-id=\"SfmusW5B5jOaR0vd\" data-type=\"JournalEntryPage\" data-pack=\"n5e.rules\" data-tooltip=\"Text Page\"><i class=\"fas fa-file-lines\"></i>Stunned</a>",
        "hidden": false
      },
      {
        "id": "2d320FdHX49wGt5g",
        "name": "Unconscious",
        "icon": "systems/n5e/icons/svg/unconscious.svg",
        "referenceId": "@UUID[Compendium.n5e.rules.VfnXFKVz6YkqsAal.JournalEntryPage.SfmusW5B5jOaR0vd#unconscious]{Unconscious}",
        "activeEffect": {
          "label": "Unconscious",
          "icon": "systems/n5e/icons/svg/unconscious.svg",
          "tint": null,
          "disabled": false,
          "duration": {
            "seconds": null,
            "startTime": null,
            "rounds": null,
            "turns": null,
            "startRound": null,
            "startTurn": null,
            "combat": null
          },
          "changes": [
            {
              "key": "StatusEffect",
              "mode": 0,
              "value": "condition-lab-triggler.BanNBbGkfyfymjrO",
              "priority": null
            },
            {
              "key": "system.attributes.movement.all",
              "mode": 0,
              "value": "0",
              "priority": null
            },
            {
              "key": "flags.midi-qoln5e.fail.ability.save.str",
              "mode": 0,
              "value": "1",
              "priority": null
            },
            {
              "key": "flags.midi-qoln5e.fail.ability.save.dex",
              "mode": 0,
              "value": "1",
              "priority": null
            },
            {
              "key": "flags.midi-qoln5e.grants.advantage.attack.all",
              "mode": 0,
              "value": "1",
              "priority": null
            },
            {
              "key": "flags.midi-qoln5e.grants.critical.mgak",
              "mode": 0,
              "value": "1",
              "priority": null
            },
            {
              "key": "flags.midi-qoln5e.grants.critical.mnak",
              "mode": 0,
              "value": "1",
              "priority": null
            },
            {
              "key": "flags.midi-qoln5e.grants.critical.mtak",
              "mode": 0,
              "value": "1",
              "priority": null
            },
            {
              "key": "flags.midi-qoln5e.grants.critical.mwak",
              "mode": 0,
              "value": "1",
              "priority": null
            }
          ],
          "flags": {
            "condition-lab-triggler": {
              "conditionId": "2d320FdHX49wGt5g"
            }
          },
          "_id": null,
          "origin": null,
          "transfer": true
        },
        "options": {
          "overlay": true,
          "outputChat": false
        },
        "isNew": false,
        "isChanged": false,
        "enrichedReference": "<a class=\"content-link\" draggable=\"true\" data-hash=\"unconscious\" data-uuid=\"Compendium.n5e.rules.VfnXFKVz6YkqsAal.JournalEntryPage.SfmusW5B5jOaR0vd\" data-id=\"SfmusW5B5jOaR0vd\" data-type=\"JournalEntryPage\" data-pack=\"n5e.rules\" data-tooltip=\"Text Page\"><i class=\"fas fa-file-lines\"></i>Unconscious</a>",
        "hidden": false
      },
      {
        "id": "qIM1TvItZoETzpVh",
        "name": "Weakened",
        "icon": "systems/n5e/icons/svg/weakened.svg",
        "referenceId": "@UUID[Compendium.n5e.rules.VfnXFKVz6YkqsAal.JournalEntryPage.SfmusW5B5jOaR0vd#weakened]{Weakened}",
        "activeEffect": {
          "label": "Weakened",
          "icon": "systems/n5e/icons/svg/weakened.svg",
          "tint": null,
          "disabled": false,
          "duration": {
            "seconds": 60,
            "startTime": null,
            "rounds": null,
            "turns": null,
            "startRound": null,
            "startTurn": null,
            "combat": null
          },
          "changes": [
            {
              "key": "system.bonuses.mgak.damage",
              "mode": 2,
              "value": "-2"
            },
            {
              "key": "system.bonuses.mnak.damage",
              "mode": 2,
              "value": "-2"
            },
            {
              "key": "system.bonuses.mtak.damage",
              "mode": 2,
              "value": "-2"
            },
            {
              "key": "system.bonuses.mwak.damage",
              "mode": 2,
              "value": "-2"
            },
            {
              "key": "system.abilities.str.bonuses.check",
              "mode": 2,
              "value": "-1"
            },
            {
              "key": "system.abilities.str.bonuses.save",
              "mode": 2,
              "value": "-1"
            },
            {
              "key": "system.abilities.dex.bonuses.check",
              "mode": 2,
              "value": "-1"
            },
            {
              "key": "system.abilities.dex.bonuses.save",
              "mode": 2,
              "value": "-1"
            },
            {
              "key": "system.abilities.con.bonuses.check",
              "mode": 2,
              "value": "-1"
            },
            {
              "key": "system.abilities.con.bonuses.save",
              "mode": 2,
              "value": "-1"
            },
            {
              "key": "system.attributes.movement.all",
              "mode": 0,
              "value": "-5"
            }
          ],
          "flags": {
            "condition-lab-triggler": {
              "conditionId": "qIM1TvItZoETzpVh"
            }
          },
          "_id": null,
          "origin": null,
          "transfer": true
        },
        "options": {
          "outputChat": false
        },
        "isNew": false,
        "isChanged": false,
        "enrichedReference": "<a class=\"content-link\" draggable=\"true\" data-hash=\"weakened\" data-uuid=\"Compendium.n5e.rules.VfnXFKVz6YkqsAal.JournalEntryPage.SfmusW5B5jOaR0vd\" data-id=\"SfmusW5B5jOaR0vd\" data-type=\"JournalEntryPage\" data-pack=\"n5e.rules\" data-tooltip=\"Text Page\"><i class=\"fas fa-file-lines\"></i>Weakened</a>",
        "hidden": false
      }
    ]
  }